{
"total": 20,
"per_page": 5,
"current_page": 1,
"last_page": 4,
"next_page_url": "json/posts-page-2.json",
"prev_page_url": null,
"from": 1,
"to": 5,
"data": [
    {
    "id": "21",
    "post_date": "2015-05-11 11:17:00",
    "post_author": "1",
    "post_author_edited": null,
    "post_title": "Man must explore, and this is exploration at its greatest",
    "post_slug": "man-must-explore-and-this-is-exploration-at-its-greatest",
    "post_content": "<p>Never in all their history have men been able truly to conceive of the world as one: a single sphere, a globe, having the qualities of a globe, a round earth in which all the directions eventually meet, in which there is no center because every point, or none, is center — an equal earth which all men occupy as equals. The airman's earth, if free men make it, will be truly round: a globe in practice, not in theory.</p><p>Science cuts two ways, of course; its products can be used for both good and evil. But there's no turning back from science. The early warnings about technological dangers also come from science.</p><p>What was most significant about the lunar voyage was not that man set foot on the Moon but that they set eye on the earth.</p><p>A Chinese tale tells of some men sent to harm a young girl who, upon seeing her beauty, become her protectors rather than her violators. That's how I felt seeing the Earth for the first time. I could not help but love and cherish her.</p><p>For those who have seen the Earth from space, and for the hundreds and perhaps thousands more who will, the experience most certainly changes your perspective. The things that we share in our world are far more valuable than those which divide us.</p><h2>The Final Frontier</h2><p>There can be no thought of finishing for ‘aiming for the stars.’ Both figuratively and literally, it is a task to occupy the generations. And no matter how much progress one makes, there is always the thrill of just beginning.</p><p>There can be no thought of finishing for ‘aiming for the stars.’ Both figuratively and literally, it is a task to occupy the generations. And no matter how much progress one makes, there is always the thrill of just beginning.</p><blockquote>The dreams of yesterday are the hopes of today and the reality of tomorrow. Science has not yet mastered prophecy. We predict too much for the next year and yet far too little for the next ten.</blockquote><p>Spaceflights cannot be stopped. This is not the work of any one man or even a group of men. It is a historical process which mankind is carrying out in accordance with the natural laws of human development.</p><h2>Reaching for the Stars</h2><p>As we got further and further away, it [the Earth] diminished in size. Finally it shrank to the size of a marble, the most beautiful you can imagine. That beautiful, warm, living object looked so fragile, so delicate, that if you touched it with a finger it would crumble and fall apart. Seeing this has to change a man.</p><a target=\"_blank\" rel=\"nofollow\" href=\"http://ironsummitmedia.github.io/startbootstrap-clean-blog/post.html#\"><img alt=\"\" src=\"http://ironsummitmedia.github.io/startbootstrap-clean-blog/img/post-sample-image.jpg\" title=\"Image: http://ironsummitmedia.github.io/startbootstrap-clean-blog/img/post-sample-image.jpg\"></a>To go places and do things that have never been done before – that’s what living is all about.<p>Space, the final frontier. These are the voyages of the Starship Enterprise. Its five-year mission: to explore strange new worlds, to seek out new life and new civilizations, to boldly go where no man has gone before.</p><p>As I stand out here in the wonders of the unknown at Hadley, I sort of realize there’s a fundamental truth to our nature, Man must explore, and this is exploration at its greatest.</p><p>Placeholder text by&nbsp;<a target=\"_blank\" rel=\"nofollow\" href=\"http://spaceipsum.com/\">Space Ipsum</a>. Photographs by&nbsp;<a target=\"_blank\" rel=\"nofollow\" href=\"https://www.flickr.com/photos/nasacommons/\">NASA on The Commons</a>.</p>",
    "post_status": "published",
    "featured_image": null,
    "created_at": "2015-05-11 10:18:17",
    "updated_at": "2015-05-11 10:18:17",
    "author": {
    "id": "1",
    "firstname": "Admin",
    "lastname": "User",
    "email": "admin@admin.com",
    "profile_image": "https://graph.facebook.com/10152727389062860/picture",
    "confirmed": "1",
    "confirmation_code": null,
    "created_at": "2015-05-11 10:00:45",
    "updated_at": "2015-05-11 10:00:45"
    },
    "categories": [
    {
    "id": "2",
    "user_id": "1",
    "user_id_edited": "1",
    "title": "html",
    "slug": "html",
    "created_at": "2015-05-11 10:00:45",
    "updated_at": "2015-05-11 10:00:45",
    "pivot": {
    "post_id": "21",
    "category_id": "2"
    }
    },
    {
    "id": "3",
    "user_id": "1",
    "user_id_edited": "1",
    "title": "css",
    "slug": "css",
    "created_at": "2015-05-11 10:00:45",
    "updated_at": "2015-05-11 10:00:45",
    "pivot": {
    "post_id": "21",
    "category_id": "3"
    }
    }
    ]
},
{
"id": "2",
"post_date": "2015-04-08 15:00:26",
"post_author": "1",
"post_author_edited": "1",
"post_title": "Hic eos quia velit vitae et.",
"post_slug": "hic-eos-quia-velit-vitae-et",
"post_content": "Id consequatur eum sunt rerum incidunt libero est. Rerum ad optio omnis natus incidunt. Vel ad praesentium magni error. Quis deserunt laudantium magni doloribus sit. Iste dolorem impedit quo distinctio velit et sunt. Corporis voluptas ea rerum dolorum natus nihil. Quia tempore error et rerum. Sapiente et aperiam explicabo quis. Eos illum iusto doloribus consectetur earum dolor.",
"post_status": "published",
"featured_image": null,
"created_at": "2015-05-11 10:00:45",
"updated_at": "2015-05-11 10:00:45",
"author": {
"id": "1",
"firstname": "Admin",
"lastname": "User",
"email": "admin@admin.com",
"profile_image": "https://graph.facebook.com/10152727389062860/picture",
"confirmed": "1",
"confirmation_code": null,
"created_at": "2015-05-11 10:00:45",
"updated_at": "2015-05-11 10:00:45"
},
"categories": []
},
{
"id": "3",
"post_date": "2015-04-08 15:00:26",
"post_author": "1",
"post_author_edited": "1",
"post_title": "Ut officiis molestiae ex dolor ut eos.",
"post_slug": "ut-officiis-molestiae-ex-dolor-ut-eos",
"post_content": "Eos iure dicta nemo consectetur voluptatibus consequatur. Velit perspiciatis repellendus rerum. Reprehenderit quasi dolores deleniti. Porro hic occaecati non esse labore quisquam distinctio. Voluptatum dolorum sed temporibus consequatur fugit. Ut similique eligendi provident aut aut eligendi dignissimos. Sed est doloremque natus sunt corrupti vel. Qui molestiae ut voluptate sit et inventore et. Fugit aut et beatae possimus optio. Eligendi qui qui natus magnam et veritatis qui. Corrupti praesentium et qui dolorem sunt.",
"post_status": "published",
"featured_image": null,
"created_at": "2015-05-11 10:00:45",
"updated_at": "2015-05-11 10:00:45",
"author": {
"id": "1",
"firstname": "Admin",
"lastname": "User",
"email": "admin@admin.com",
"profile_image": "https://graph.facebook.com/10152727389062860/picture",
"confirmed": "1",
"confirmation_code": null,
"created_at": "2015-05-11 10:00:45",
"updated_at": "2015-05-11 10:00:45"
},
"categories": []
},
{
"id": "4",
"post_date": "2015-04-08 15:00:26",
"post_author": "1",
"post_author_edited": "1",
"post_title": "Possimus non sit hic quo ut.",
"post_slug": "possimus-non-sit-hic-quo-ut",
"post_content": "Inventore nam rerum qui optio. Aut optio et dolor et. Rerum quasi rerum sit modi nostrum. Illo rem itaque nobis et nesciunt blanditiis minima. Ullam saepe in corrupti corrupti accusamus in. Id aut sapiente et rerum aliquam qui. Est qui et nihil magnam. Consequuntur molestiae aut voluptates est quis ducimus. Aut facilis eius earum id aut illo. Voluptas laboriosam esse aut quia provident expedita. Quia ipsa adipisci veniam aut itaque.",
"post_status": "published",
"featured_image": null,
"created_at": "2015-05-11 10:00:45",
"updated_at": "2015-05-11 10:00:45",
"author": {
"id": "1",
"firstname": "Admin",
"lastname": "User",
"email": "admin@admin.com",
"profile_image": "https://graph.facebook.com/10152727389062860/picture",
"confirmed": "1",
"confirmation_code": null,
"created_at": "2015-05-11 10:00:45",
"updated_at": "2015-05-11 10:00:45"
},
"categories": []
},
{
"id": "5",
"post_date": "2015-04-08 15:00:26",
"post_author": "1",
"post_author_edited": "1",
"post_title": "Non quae aperiam ex et.",
"post_slug": "non-quae-aperiam-ex-et",
"post_content": "Velit facilis aut sunt corporis nihil ut. Et nihil sed quod atque. Voluptatem quam quo autem nihil quam dolorem quas. Rerum qui numquam rerum quia a in. Tenetur sapiente quia quia dolorem. Facere voluptas voluptas aut in laborum aut. Numquam ex quo non repudiandae sed. Accusamus similique explicabo suscipit. Dicta reiciendis nobis est maxime. Ab enim cupiditate sit autem eum. Rerum nesciunt non occaecati iusto molestiae ipsam placeat quis. Et velit dolor quisquam at.",
"post_status": "published",
"featured_image": null,
"created_at": "2015-05-11 10:00:45",
"updated_at": "2015-05-11 10:00:45",
"author": {
"id": "1",
"firstname": "Admin",
"lastname": "User",
"email": "admin@admin.com",
"profile_image": "https://graph.facebook.com/10152727389062860/picture",
"confirmed": "1",
"confirmation_code": null,
"created_at": "2015-05-11 10:00:45",
"updated_at": "2015-05-11 10:00:45"
},
"categories": []
}
]
}
