{
"total": 20,
"per_page": 5,
"current_page": 3,
"last_page": 4,
"next_page_url": "json/posts-page-4.json",
"prev_page_url": "json/posts-page-2.json",
"from": 11,
"to": 15,
"data": [
{
"id": "11",
"post_date": "2015-04-08 15:00:26",
"post_author": "1",
"post_author_edited": "1",
"post_title": "Iste laboriosam officiis et fuga qui commodi odit modi.",
"post_slug": "iste-laboriosam-officiis-et-fuga-qui-commodi-odit-modi",
"post_content": "Soluta magni voluptatum at sit velit est omnis. Rem error provident veniam id in. Error velit fugit quidem itaque. Ipsam tenetur molestias exercitationem. Nisi ab a placeat totam ut itaque quo. Facilis quam praesentium modi officiis aspernatur esse. Eligendi dolorem omnis quaerat cupiditate unde odit. Sit deserunt libero molestiae laborum. Laboriosam sit maiores et repellat placeat. Assumenda ad ipsam est in sit eos cum. Necessitatibus nisi alias minima. Vero rerum provident non aut. Eveniet doloribus quisquam cum.",
"post_status": "published",
"featured_image": null,
"created_at": "2015-05-11 10:00:45",
"updated_at": "2015-05-11 10:00:45",
"author": {
"id": "1",
"firstname": "Admin",
"lastname": "User",
"email": "admin@admin.com",
"profile_image": "https://graph.facebook.com/10152727389062860/picture",
"confirmed": "1",
"confirmation_code": null,
"created_at": "2015-05-11 10:00:45",
"updated_at": "2015-05-11 10:00:45"
},
"categories": []
},
{
"id": "12",
"post_date": "2015-04-08 15:00:26",
"post_author": "1",
"post_author_edited": "1",
"post_title": "Et velit et blanditiis consequatur.",
"post_slug": "et-velit-et-blanditiis-consequatur",
"post_content": "A ut maiores suscipit cum amet iure voluptas. Consequatur facilis cumque nobis. Eos expedita ullam nesciunt unde voluptates rem. Est dolorum nihil eos nulla pariatur ad. Incidunt omnis et et earum illum. Iste est consequuntur ipsam et. Qui labore quia quasi fugiat. Est sit ut sunt saepe rem modi. Qui similique tempore fugiat sint fugit ea. Labore maxime itaque ducimus atque minima rerum.",
"post_status": "published",
"featured_image": null,
"created_at": "2015-05-11 10:00:45",
"updated_at": "2015-05-11 10:00:45",
"author": {
"id": "1",
"firstname": "Admin",
"lastname": "User",
"email": "admin@admin.com",
"profile_image": "https://graph.facebook.com/10152727389062860/picture",
"confirmed": "1",
"confirmation_code": null,
"created_at": "2015-05-11 10:00:45",
"updated_at": "2015-05-11 10:00:45"
},
"categories": []
},
{
"id": "13",
"post_date": "2015-04-08 15:00:26",
"post_author": "1",
"post_author_edited": "1",
"post_title": "Ad deserunt deleniti quaerat ut adipisci nihil.",
"post_slug": "ad-deserunt-deleniti-quaerat-ut-adipisci-nihil",
"post_content": "Error ut blanditiis voluptatem est nesciunt aut. Omnis sed deleniti atque architecto impedit qui. Maxime autem est omnis voluptatibus reprehenderit non. Sed optio hic pariatur aperiam omnis a. Voluptatem excepturi id deserunt totam voluptatem neque. Voluptatum accusantium excepturi ea dicta magnam quo. Quia repudiandae ullam molestiae enim quisquam enim repellendus. Perferendis deleniti nihil non dolores est. Et rem ut esse aut. Repudiandae veniam quam fugit. Illum harum et accusamus quidem doloremque repellendus vitae. Sit atque ut reprehenderit voluptatem distinctio quidem dolore.",
"post_status": "published",
"featured_image": null,
"created_at": "2015-05-11 10:00:45",
"updated_at": "2015-05-11 10:00:45",
"author": {
"id": "1",
"firstname": "Admin",
"lastname": "User",
"email": "admin@admin.com",
"profile_image": "https://graph.facebook.com/10152727389062860/picture",
"confirmed": "1",
"confirmation_code": null,
"created_at": "2015-05-11 10:00:45",
"updated_at": "2015-05-11 10:00:45"
},
"categories": []
},
{
"id": "14",
"post_date": "2015-04-08 15:00:26",
"post_author": "1",
"post_author_edited": "1",
"post_title": "Eius amet ab non nostrum et eaque est consequatur.",
"post_slug": "eius-amet-ab-non-nostrum-et-eaque-est-consequatur",
"post_content": "Vitae ad et eos repellat explicabo accusantium. Hic rerum illo illum dicta totam quia eaque in. Perferendis similique voluptates eum officiis minima earum. Reprehenderit cupiditate et aspernatur autem. Ea in optio minus culpa cum perferendis illum. Reprehenderit totam eum magni error. Sint velit labore culpa esse error. Corporis labore et sit culpa nemo et ipsa. Maxime totam unde accusamus quam velit. Explicabo sunt dolorem quam sed. Deleniti officia animi earum nihil quia aut qui. Recusandae quia saepe recusandae quo.",
"post_status": "published",
"featured_image": null,
"created_at": "2015-05-11 10:00:45",
"updated_at": "2015-05-11 10:00:45",
"author": {
"id": "1",
"firstname": "Admin",
"lastname": "User",
"email": "admin@admin.com",
"profile_image": "https://graph.facebook.com/10152727389062860/picture",
"confirmed": "1",
"confirmation_code": null,
"created_at": "2015-05-11 10:00:45",
"updated_at": "2015-05-11 10:00:45"
},
"categories": []
},
{
"id": "15",
"post_date": "2015-04-08 15:00:26",
"post_author": "1",
"post_author_edited": "1",
"post_title": "Quasi aut est perferendis eum amet aut blanditiis.",
"post_slug": "quasi-aut-est-perferendis-eum-amet-aut-blanditiis",
"post_content": "Atque ut unde non voluptate fugit. Pariatur id quaerat voluptatem velit labore dignissimos quis. Atque error architecto vero in sit. Quia non aut cupiditate iure aut nostrum. Occaecati debitis rerum fugit et blanditiis quo itaque. Nisi reprehenderit quia temporibus exercitationem. Voluptatem distinctio quasi dolores et. Qui optio perspiciatis similique quis alias. Est nemo voluptate corporis quibusdam laborum cumque alias. Vero illum illum et repellendus et accusamus tempore. Repellendus ea minima consequuntur atque enim placeat asperiores adipisci.",
"post_status": "published",
"featured_image": null,
"created_at": "2015-05-11 10:00:45",
"updated_at": "2015-05-11 10:00:45",
"author": {
"id": "1",
"firstname": "Admin",
"lastname": "User",
"email": "admin@admin.com",
"profile_image": "https://graph.facebook.com/10152727389062860/picture",
"confirmed": "1",
"confirmation_code": null,
"created_at": "2015-05-11 10:00:45",
"updated_at": "2015-05-11 10:00:45"
},
"categories": []
}
]
}
