{
"total": 20,
"per_page": 5,
"current_page": 2,
"last_page": 4,
"next_page_url": "json/posts-page-3.json",
"prev_page_url": "json/posts-page-1.json",
"from": 6,
"to": 10,
"data": [
{
"id": "6",
"post_date": "2015-04-08 15:00:26",
"post_author": "1",
"post_author_edited": "1",
"post_title": "Esse qui dignissimos est.",
"post_slug": "esse-qui-dignissimos-est",
"post_content": "Maxime quibusdam repellendus aut suscipit illo ut. Neque modi rem sit sit. Est architecto eligendi nostrum a rerum rerum rerum. Est error ea earum corporis autem. Iusto quo quo et maxime. Eligendi nihil quos quia eos necessitatibus soluta. Incidunt officia eaque repellat voluptate. Rerum maiores sunt rem voluptatem et nostrum. Deleniti praesentium et qui ut. Illum mollitia sapiente dolor et eum qui qui. Quo eligendi cum veritatis incidunt nulla culpa. Voluptate velit ut id ut.",
"post_status": "published",
"featured_image": null,
"created_at": "2015-05-11 10:00:45",
"updated_at": "2015-05-11 10:00:45",
"author": {
"id": "1",
"firstname": "Admin",
"lastname": "User",
"email": "admin@admin.com",
"profile_image": "https://graph.facebook.com/10152727389062860/picture",
"confirmed": "1",
"confirmation_code": null,
"created_at": "2015-05-11 10:00:45",
"updated_at": "2015-05-11 10:00:45"
},
"categories": []
},
{
"id": "7",
"post_date": "2015-04-08 15:00:26",
"post_author": "1",
"post_author_edited": "1",
"post_title": "Sed omnis odit molestiae odit illo nesciunt voluptatem et.",
"post_slug": "sed-omnis-odit-molestiae-odit-illo-nesciunt-voluptatem-et",
"post_content": "Vel voluptas quis autem quasi. Velit blanditiis dolorum aut facilis quia id sed. Ut eum consequatur asperiores id minus voluptas aliquam. Expedita quia commodi voluptates laboriosam est qui. Suscipit totam deserunt blanditiis sit aut et non. Architecto perferendis occaecati et omnis. Et qui reiciendis explicabo illum labore minus. Similique doloribus corrupti voluptatibus saepe sunt quam ratione. Dolores molestias optio modi nihil fugiat. Libero laudantium consequuntur quam dolores ab a et. Et commodi debitis qui dolores perspiciatis.",
"post_status": "published",
"featured_image": null,
"created_at": "2015-05-11 10:00:45",
"updated_at": "2015-05-11 10:00:45",
"author": {
"id": "1",
"firstname": "Admin",
"lastname": "User",
"email": "admin@admin.com",
"profile_image": "https://graph.facebook.com/10152727389062860/picture",
"confirmed": "1",
"confirmation_code": null,
"created_at": "2015-05-11 10:00:45",
"updated_at": "2015-05-11 10:00:45"
},
"categories": []
},
{
"id": "8",
"post_date": "2015-04-08 15:00:26",
"post_author": "1",
"post_author_edited": "1",
"post_title": "Expedita cum doloremque aut sit.",
"post_slug": "expedita-cum-doloremque-aut-sit",
"post_content": "Sunt velit totam ullam aut. Iusto itaque repellat recusandae est similique repellendus. Id cum est rem qui commodi eum. Sint doloremque eos deleniti qui corporis. Corporis iusto fuga minus dolores. Suscipit sunt inventore ea fugit consequatur voluptatum sapiente aperiam. Sed consequatur eligendi in et non ipsam quos non. Voluptate sed omnis dolor veritatis.",
"post_status": "published",
"featured_image": null,
"created_at": "2015-05-11 10:00:45",
"updated_at": "2015-05-11 10:00:45",
"author": {
"id": "1",
"firstname": "Admin",
"lastname": "User",
"email": "admin@admin.com",
"profile_image": "https://graph.facebook.com/10152727389062860/picture",
"confirmed": "1",
"confirmation_code": null,
"created_at": "2015-05-11 10:00:45",
"updated_at": "2015-05-11 10:00:45"
},
"categories": []
},
{
"id": "9",
"post_date": "2015-04-08 15:00:26",
"post_author": "1",
"post_author_edited": "1",
"post_title": "Quia nam vitae sed.",
"post_slug": "quia-nam-vitae-sed",
"post_content": "Quia earum necessitatibus maxime officiis explicabo aut architecto. Eveniet aspernatur repellat expedita possimus laboriosam provident. Et amet dolor quo omnis odio et. Porro quidem temporibus tempora. Saepe est rerum ipsa rerum quibusdam qui. Consequatur laborum voluptatem ullam ea vel ut sit. Est fugiat fugiat et laboriosam. Quis voluptas omnis sapiente cupiditate deserunt architecto distinctio. Illum et similique cum ut officia maiores et. Distinctio minima natus itaque nostrum. Dolores eos repudiandae reprehenderit hic voluptatem ut non. Non quia distinctio est dolor veritatis quis itaque.",
"post_status": "published",
"featured_image": null,
"created_at": "2015-05-11 10:00:45",
"updated_at": "2015-05-11 10:00:45",
"author": {
"id": "1",
"firstname": "Admin",
"lastname": "User",
"email": "admin@admin.com",
"profile_image": "https://graph.facebook.com/10152727389062860/picture",
"confirmed": "1",
"confirmation_code": null,
"created_at": "2015-05-11 10:00:45",
"updated_at": "2015-05-11 10:00:45"
},
"categories": []
},
{
"id": "10",
"post_date": "2015-04-08 15:00:26",
"post_author": "1",
"post_author_edited": "1",
"post_title": "Possimus molestiae placeat cum dolorum eum vero.",
"post_slug": "possimus-molestiae-placeat-cum-dolorum-eum-vero",
"post_content": "Rerum sed et aut incidunt omnis ut. Voluptas nihil autem quibusdam eaque. Fuga incidunt quaerat sit ipsa vero voluptates est omnis. Et ut qui beatae saepe. Et cumque alias eaque consequatur ullam qui. Vero temporibus dolor omnis cumque saepe. Molestiae nesciunt at sit et quae. Ut quis aperiam voluptas tempora excepturi modi dolor. Ratione explicabo nemo et. Et corporis ex sit et maxime. Libero pariatur similique qui explicabo. Vel ratione in at. Velit ipsa deserunt aspernatur quis dicta perspiciatis.",
"post_status": "published",
"featured_image": null,
"created_at": "2015-05-11 10:00:45",
"updated_at": "2015-05-11 10:00:45",
"author": {
"id": "1",
"firstname": "Admin",
"lastname": "User",
"email": "admin@admin.com",
"profile_image": "https://graph.facebook.com/10152727389062860/picture",
"confirmed": "1",
"confirmation_code": null,
"created_at": "2015-05-11 10:00:45",
"updated_at": "2015-05-11 10:00:45"
},
"categories": []
}
]
}
