{
"total": 20,
"per_page": 5,
"current_page": 4,
"last_page": 4,
"next_page_url": null,
"prev_page_url": "json/posts-page-3.json",
"from": 16,
"to": 20,
"data": [
{
"id": "16",
"post_date": "2015-04-08 15:00:26",
"post_author": "1",
"post_author_edited": "1",
"post_title": "Impedit explicabo ut temporibus.",
"post_slug": "impedit-explicabo-ut-temporibus",
"post_content": "Vel qui nam consequuntur. Eos saepe consectetur in provident nam ut. Sit accusamus occaecati temporibus quis fuga dignissimos. Sit perferendis eum illo ut. Iusto rerum quis nisi suscipit eos. Fugiat labore voluptates quasi id qui. Nihil dolor id debitis vel non ipsam et. Deserunt vitae voluptatem cum. Tempore necessitatibus aperiam est. Veniam nisi atque unde recusandae aliquam aut doloribus possimus. Enim temporibus tenetur autem quis quam.",
"post_status": "published",
"featured_image": null,
"created_at": "2015-05-11 10:00:45",
"updated_at": "2015-05-11 10:00:45",
"author": {
"id": "1",
"firstname": "Admin",
"lastname": "User",
"email": "admin@admin.com",
"profile_image": "https://graph.facebook.com/10152727389062860/picture",
"confirmed": "1",
"confirmation_code": null,
"created_at": "2015-05-11 10:00:45",
"updated_at": "2015-05-11 10:00:45"
},
"categories": []
},
{
"id": "17",
"post_date": "2015-04-08 15:00:26",
"post_author": "1",
"post_author_edited": "1",
"post_title": "Quo expedita eos dolorum omnis nulla quis tenetur rerum.",
"post_slug": "quo-expedita-eos-dolorum-omnis-nulla-quis-tenetur-rerum",
"post_content": "Similique fugiat maxime dolores. Rem et dolore iure pariatur. In aut fuga minus est quia. Repellat nemo atque aut. Necessitatibus dignissimos ipsa quia alias necessitatibus ut unde dolorem. Natus vel illum quisquam in. Blanditiis recusandae blanditiis tempore ad voluptatibus sed tenetur ipsa. Autem inventore omnis veritatis et.",
"post_status": "published",
"featured_image": null,
"created_at": "2015-05-11 10:00:45",
"updated_at": "2015-05-11 10:00:45",
"author": {
"id": "1",
"firstname": "Admin",
"lastname": "User",
"email": "admin@admin.com",
"profile_image": "https://graph.facebook.com/10152727389062860/picture",
"confirmed": "1",
"confirmation_code": null,
"created_at": "2015-05-11 10:00:45",
"updated_at": "2015-05-11 10:00:45"
},
"categories": []
},
{
"id": "18",
"post_date": "2015-04-08 15:00:26",
"post_author": "1",
"post_author_edited": "1",
"post_title": "Aut consequatur debitis sint qui numquam non.",
"post_slug": "aut-consequatur-debitis-sint-qui-numquam-non",
"post_content": "Et enim unde maiores dolor laborum aut. Perspiciatis aliquam officiis voluptas dolorem deleniti in. Dolor blanditiis et id dolor tempora voluptas laboriosam. Est est sint ut magni. Ut voluptas deleniti autem nam. Est molestiae quam eveniet dolores omnis quis. Pariatur optio et deserunt debitis dolorem. Rem consequuntur blanditiis quisquam rem nobis libero. Occaecati quibusdam magni nostrum esse nobis et aut.",
"post_status": "published",
"featured_image": null,
"created_at": "2015-05-11 10:00:45",
"updated_at": "2015-05-11 10:00:45",
"author": {
"id": "1",
"firstname": "Admin",
"lastname": "User",
"email": "admin@admin.com",
"profile_image": "https://graph.facebook.com/10152727389062860/picture",
"confirmed": "1",
"confirmation_code": null,
"created_at": "2015-05-11 10:00:45",
"updated_at": "2015-05-11 10:00:45"
},
"categories": []
},
{
"id": "19",
"post_date": "2015-04-08 15:00:26",
"post_author": "1",
"post_author_edited": "1",
"post_title": "Explicabo recusandae maxime omnis dolore.",
"post_slug": "explicabo-recusandae-maxime-omnis-dolore",
"post_content": "Laborum repellendus quisquam facilis accusamus dolorem soluta placeat. Voluptatum ut reprehenderit quia sit voluptas. Sit voluptas qui unde soluta eligendi. Et tenetur dolor et iste incidunt provident qui. A qui rerum necessitatibus amet. Enim culpa esse quidem placeat blanditiis. Harum ut praesentium consectetur laboriosam. Autem voluptatum maxime vitae soluta delectus cum sequi. Numquam explicabo laboriosam molestias dolorem suscipit minima. Repellendus distinctio dolorum dolorem in beatae est. Dignissimos architecto deleniti animi accusantium.",
"post_status": "published",
"featured_image": null,
"created_at": "2015-05-11 10:00:45",
"updated_at": "2015-05-11 10:00:45",
"author": {
"id": "1",
"firstname": "Admin",
"lastname": "User",
"email": "admin@admin.com",
"profile_image": "https://graph.facebook.com/10152727389062860/picture",
"confirmed": "1",
"confirmation_code": null,
"created_at": "2015-05-11 10:00:45",
"updated_at": "2015-05-11 10:00:45"
},
"categories": []
},
{
"id": "20",
"post_date": "2015-04-08 15:00:26",
"post_author": "1",
"post_author_edited": "1",
"post_title": "Quidem ut fugit neque non voluptatibus fugit animi ut.",
"post_slug": "quidem-ut-fugit-neque-non-voluptatibus-fugit-animi-ut",
"post_content": "Earum aliquid asperiores voluptas velit ab dolores qui quia. Aut odit odit autem. Dolorum fugit perferendis quas tenetur aut. Et beatae debitis sit totam. Voluptatem rerum praesentium cumque unde libero. Quia officia officiis et porro corrupti ducimus pariatur. Ut fugit totam et. Ut quia accusantium pariatur repellendus vitae voluptatem qui. Sed non earum a et quaerat vel. Voluptate aut deleniti iure labore reprehenderit tenetur deserunt. Sed aut voluptatem aut temporibus rerum.",
"post_status": "published",
"featured_image": null,
"created_at": "2015-05-11 10:00:45",
"updated_at": "2015-05-11 10:00:45",
"author": {
"id": "1",
"firstname": "Admin",
"lastname": "User",
"email": "admin@admin.com",
"profile_image": "https://graph.facebook.com/10152727389062860/picture",
"confirmed": "1",
"confirmation_code": null,
"created_at": "2015-05-11 10:00:45",
"updated_at": "2015-05-11 10:00:45"
},
"categories": []
}
]
}
